Customer segmentation through unsupervised learning K-means
…
Code

colSums(is.na(retaildata))

  InvoiceNo   StockCode Description    Quantity InvoiceDate   UnitPrice 
          0           0        1454           0           0           0 
 CustomerID     Country 
     135080           0 

Code

na_rows <- retaildata[!complete.cases(retaildata), ]
na_rows

# A tibble: 135,080 × 8
   InvoiceNo StockCode Description        Quantity InvoiceDate         UnitPrice
   <chr>     <chr>     <chr>                 <dbl> <dttm>                  <dbl>
 1 536414    22139     <NA>                     56 2010-12-01 11:52:00      0   
 2 536544    21773     DECORATIVE ROSE B…        1 2010-12-01 14:32:00      2.51
 3 536544    21774     DECORATIVE CATS B…        2 2010-12-01 14:32:00      2.51
 4 536544    21786     POLKADOT RAIN HAT         4 2010-12-01 14:32:00      0.85
 5 536544    21787     RAIN PONCHO RETRO…        2 2010-12-01 14:32:00      1.66
 6 536544    21790     VINTAGE SNAP CARDS        9 2010-12-01 14:32:00      1.66
 7 536544    21791     VINTAGE HEADS AND…        2 2010-12-01 14:32:00      2.51
 8 536544    21801     CHRISTMAS TREE DE…       10 2010-12-01 14:32:00      0.43
 9 536544    21802     CHRISTMAS TREE HE…        9 2010-12-01 14:32:00      0.43
10 536544    21803     CHRISTMAS TREE ST…       11 2010-12-01 14:32:00      0.43
# ℹ 135,070 more rows
# ℹ 2 more variables: CustomerID <dbl>, Country <chr>

Code

subset(retaildata, UnitPrice == 0)

# A tibble: 2,515 × 8
   InvoiceNo StockCode Description Quantity InvoiceDate         UnitPrice
   <chr>     <chr>     <chr>          <dbl> <dttm>                  <dbl>
 1 536414    22139     <NA>              56 2010-12-01 11:52:00         0
 2 536545    21134     <NA>               1 2010-12-01 14:32:00         0
 3 536546    22145     <NA>               1 2010-12-01 14:33:00         0
 4 536547    37509     <NA>               1 2010-12-01 14:33:00         0
 5 536549    85226A    <NA>               1 2010-12-01 14:34:00         0
 6 536550    85044     <NA>               1 2010-12-01 14:34:00         0
 7 536552    20950     <NA>               1 2010-12-01 14:34:00         0
 8 536553    37461     <NA>               3 2010-12-01 14:35:00         0
 9 536554    84670     <NA>              23 2010-12-01 14:35:00         0
10 536589    21777     <NA>             -10 2010-12-01 16:50:00         0
# ℹ 2,505 more rows
# ℹ 2 more variables: CustomerID <dbl>, Country <chr>
…
